{"_id":{"$oid":"5afc5adfaecfd95af53baed9"},"fechaCreacion":{"$date":"2018-04-27T17:53:15.969Z"},"grupoServicio":{"$oid":"5b05a81145a12d656de856be"},"campos":[{"parameterType":"body","parameterName":"idDocumento","fromField":{"$oid":"5afc48cfaecfd95af53ba436"}},{"parameterType":"body","parameterName":"tipoArchivo","fromField":{"$oid":"5afc48e7aecfd95af53ba443"}},{"parameterType":"body","parameterName":"usuario","fromField":{"$oid":"5afc4901aecfd95af53ba454"}},{"parameterType":"body","parameterName":"tipoHomologado","fromField":{"$oid":"5afc4913aecfd95af53ba45f"}}],"title":"Cargar Homologados","autenticacion":false,"contentType":"application/json","host":"http://localhost","port":"8181","method":"POST","path":"/cxf/private/cargaHomologado/","actionTitle":"Cargar Homologado","roles":["IOP_CONSOLE_TEC"]}
{"_id":{"$oid":"5afc5e47aecfd95af53bb0fe"},"fechaCreacion":{"$date":"2018-04-27T17:53:15.969Z"},"grupoServicio":{"$oid":"5b05a81145a12d656de856be"},"campos":[{"parameterType":"body","parameterName":"idDocumento","fromField":{"$oid":"5afc48cfaecfd95af53ba436"}},{"parameterType":"body","parameterName":"tipoArchivo","fromField":{"$oid":"5afc48e7aecfd95af53ba443"}},{"parameterType":"body","parameterName":"tipoProceso","fromField":{"$oid":"5afc5e78aecfd95af53bb11a"}}],"title":"Cargar Documento IDI","autenticacion":false,"contentType":"application/json","host":"http://arq-int.sigfe.gob.cl","port":"8181","method":"POST","path":"/cxf/private/cargaDocumentoIdi/","actionTitle":"Cargar Documento IDI","roles":[]}
{"_id":{"$oid":"5afc5f98aecfd95af53bb1d4"},"fechaCreacion":{"$date":"2018-04-27T17:53:15.969Z"},"grupoServicio":{"$oid":"5b05a81145a12d656de856be"},"campos":[{"parameterType":"body","parameterName":"idDocumento","fromField":{"$oid":"5afc48cfaecfd95af53ba436"}},{"parameterType":"body","parameterName":"tipoArchivo","fromField":{"$oid":"5afc48e7aecfd95af53ba443"}},{"parameterType":"body","parameterName":"tipoProceso","fromField":{"$oid":"5afc5e78aecfd95af53bb11a"}}],"title":"Cargar Documento Presupuestario","autenticacion":false,"contentType":"application/json","host":"http://arq-int.sigfe.gob.cl","port":"8181","method":"POST","path":"/cxf/private/cargaDocumentoPresupuestario/","actionTitle":"Cargar Documento presupuestario","roles":[]}
{"_id":{"$oid":"5afc6059aecfd95af53bb24b"},"fechaCreacion":{"$date":"2018-04-27T17:53:15.969Z"},"grupoServicio":{"$oid":"5b05a81145a12d656de856be"},"campos":[{"parameterType":"body","parameterName":"idDocumento","fromField":{"$oid":"5afc48cfaecfd95af53ba436"}},{"parameterType":"body","parameterName":"tipoProceso","fromField":{"$oid":"5afc5e78aecfd95af53bb11a"}},{"parameterType":"body","parameterName":"tipoArchivo","fromField":{"$oid":"5afc48e7aecfd95af53ba443"}}],"title":"Cargar Idi Agregacion","autenticacion":false,"contentType":"application/json","host":"http://arq-int.sigfe.gob.cl","port":"8181","method":"POST","path":"/cxf/private/cargaIdiAgregacion/","actionTitle":"Cargar Idi Agregacion","roles":[]}
{"_id":{"$oid":"5afc6169aecfd95af53bb2ea"},"fechaCreacion":{"$date":"2018-04-27T17:53:15.969Z"},"grupoServicio":{"$oid":"5b05a81145a12d656de856be"},"campos":[{"parameterType":"asBody","parameterName":"Archivo","fromField":{"$oid":"5ae7698cc3deb22fb7828cc4"}}],"title":"Notificacion Doc presupuestario","autenticacion":false,"contentType":"text/xml","host":"http://arq-int.sigfe.gob.cl","port":"8181","method":"POST","path":"/cxf/private/enviarNotificacionDocumentoPresupuestario/","actionTitle":"Notificar Doc presupuestario","roles":[]}
{"_id":{"$oid":"5afc745baecfd95af53bbd39"},"fechaCreacion":{"$date":"2018-04-27T17:53:15.969Z"},"grupoServicio":{"$oid":"5b05a81145a12d656de856be"},"campos":[{"parameterType":"body","parameterName":"ejercicio","fromField":{"$oid":"5afc7355aecfd95af53bbca5"}},{"parameterType":"body","parameterName":"capitulo","fromField":{"$oid":"5afc7362aecfd95af53bbcad"}},{"parameterType":"body","parameterName":"partida","fromField":{"$oid":"5afc736daecfd95af53bbcb5"}},{"parameterType":"body","parameterName":"periodo","fromField":{"$oid":"5afc737faecfd95af53bbcc0"}}],"title":"Ejecucion Presupuestaria","autenticacion":false,"contentType":"application/json","host":"http://arq-int.sigfe.gob.cl","port":"8181","method":"POST","path":"/cxf/private/obtieneEjecucionPresupuestaria/","actionTitle":"Obtener ejecucion","roles":[]}
{"_id":{"$oid":"5afc759faecfd95af53bbdf2"},"fechaCreacion":{"$date":"2018-04-27T17:53:15.969Z"},"grupoServicio":{"$oid":"5b05a81145a12d656de856be"},"campos":[{"parameterType":"body","parameterName":"idDocumento","fromField":{"$oid":"5afc48cfaecfd95af53ba436"}},{"parameterType":"body","parameterName":"tipoArchivo","fromField":{"$oid":"5afc48e7aecfd95af53ba443"}},{"parameterType":"body","parameterName":"tipoProceso","fromField":{"$oid":"5afc5e78aecfd95af53bb11a"}}],"title":"Obtener Doc Presupuestario","autenticacion":false,"contentType":"application/json","host":"http://arq-int.sigfe.gob.cl","port":"8181","method":"POST","path":"/cxf/private/obtieneDocumentoPresupuestario/","actionTitle":"Obtener documento","roles":[]}
{"_id":{"$oid":"5afc7672aecfd95af53bbe77"},"fechaCreacion":{"$date":"2018-04-27T17:53:15.969Z"},"grupoServicio":{"$oid":"5b05a81145a12d656de856be"},"campos":[{"parameterType":"body","parameterName":"ejercicio","fromField":{"$oid":"5afc7355aecfd95af53bbca5"}},{"parameterType":"body","parameterName":"periodo","fromField":{"$oid":"5afc737faecfd95af53bbcc0"}}],"title":"Obtener Ejecucion Idi","autenticacion":false,"contentType":"application/json","host":"http://arq-int.sigfe.gob.cl","port":"8181","method":"POST","path":"/cxf/private/obtieneEjecucionIdi/","actionTitle":"Obtener Ejecucion Idi","roles":[]}
{"_id":{"$oid":"5afc810eaecfd95af53bc455"},"fechaCreacion":{"$date":"2018-04-27T17:53:15.969Z"},"grupoServicio":{"$oid":"5b05a81145a12d656de856be"},"campos":[{"parameterType":"path","order":0.0,"fromField":{"$oid":"5afc7b72aecfd95af53bc144"}},{"order":1.0,"parameterType":"body","parameterName":"uuid","fromField":{"$oid":"5afc48cfaecfd95af53ba436"}},{"order":2.0,"parameterType":"body","parameterName":"tipoArchivo","fromField":{"$oid":"5afc48e7aecfd95af53ba443"}},{"order":3.0,"parameterType":"body","parameterName":"md5Sum","fromField":{"$oid":"5afc7bb0aecfd95af53bc167"}},{"order":4.0,"parameterType":"body","parameterName":"tipoHomologado","fromField":{"$oid":"5afc4913aecfd95af53ba45f"}},{"order":5.0,"parameterType":"body","parameterName":"partida","fromField":{"$oid":"5afc736daecfd95af53bbcb5"}},{"order":6.0,"parameterType":"body","parameterName":"capitulo","fromField":{"$oid":"5afc7362aecfd95af53bbcad"}},{"order":7.0,"parameterType":"body","parameterName":"fechaCierrePeriodo","fromField":{"$oid":"5afc7bcaaecfd95af53bc178"}},{"order":8.0,"parameterType":"body","parameterName":"fechaCreacion","fromField":{"$oid":"5afc7bd9aecfd95af53bc181"}},{"order":9.0,"parameterType":"body","parameterName":"fechaHasta","fromField":{"$oid":"5afc7bedaecfd95af53bc18e"}},{"order":10.0,"parameterType":"body","parameterName":"idCamunda","fromField":{"$oid":"5afc7bfbaecfd95af53bc197"}}],"title":"Procesar cierre institucion","autenticacion":false,"contentType":"application/json","host":"http://arq-int.sigfe.gob.cl","port":"8181","method":"POST","path":"/cxf/private/procesaCierreInstitucion/","actionTitle":"Procesar cierre","roles":["IOP_CONSOLE_TEC"]}
{"_id":{"$oid":"5afc8b1daecfd95af53bc9c6"},"fechaCreacion":{"$date":"2018-04-27T17:53:15.969Z"},"grupoServicio":{"$oid":"5ae319798846a37fab03fabf"},"campos":[{"order":1.0,"parameterType":"path","fromField":{"$oid":"5afc48cfaecfd95af53ba436"}}],"title":"Descargar Documento","autenticacion":true,"contentType":"text/xml","host":"http://localhost","port":"8181","method":"GET","handleAs":"xml","path":"/cxf/public/documento/descarga/","actionTitle":"Descargar Documento H-I","__v":0.0,"roles":["IOP_CONSOLE_INST_HG1"]}
{"_id":{"$oid":"5b05d80be4fe7bb5d45a40ac"},"fechaCreacion":"2018-04-27T17:53:15.969Z","grupoServicio":{"$oid":"5ae319798846a37fab03fabf"},"campos":[{"parameterType":"path","order":0.0,"fromField":{"$oid":"5b05d44ae4fe7bb5d45a401a"}},{"parameterType":"path","order":2.0,"fromField":{"$oid":"5b05d4f7e4fe7bb5d45a4033"}},{"parameterType":"body","parameterName":"urlFtp","fromField":{"$oid":"5b05d670e4fe7bb5d45a406a"}},{"parameterType":"body","parameterName":"pathArchivoOrigen","fromField":{"$oid":"5b05d694e4fe7bb5d45a4070"}},{"parameterType":"body","parameterName":"nombreDocumento","fromField":{"$oid":"5b05d6ace4fe7bb5d45a4076"}},{"parameterType":"body","parameterName":"user","fromField":{"$oid":"5b05d6c4e4fe7bb5d45a407a"}},{"parameterType":"body","parameterName":"pass","fromField":{"$oid":"5b05d6d2e4fe7bb5d45a407e"}},{"parameterType":"body","parameterName":"idDocumento","fromField":{"$oid":"5b05dfeae4fe7bb5d45a4383"}},{"parameterType":"body","parameterName":"tipoDocumento","fromField":{"$oid":"5b05e02ce4fe7bb5d45a439d"}}],"title":"Notificar MDS","autenticacion":true,"contentType":"application/json","host":"http://arq-int.sigfe.gob.cl","port":"8181","method":"POST","path":"/cxf/public/notificacion/","actionTitle":"Notificar a MDS","roles":[]}
{"_id":{"$oid":"5b06c712e4fe7bb5d45a9b45"},"fechaCreacion":"2018-04-27T17:53:15.969Z","grupoServicio":{"$oid":"5ae319798846a37fab03fabf"},"campos":[{"parameterType":"path","order":0.0,"fromField":{"$oid":"5b06c828e4fe7bb5d45a9bac"}},{"parameterType":"path","order":2.0,"fromField":{"$oid":"5b06c9e9e4fe7bb5d45a9c39"}},{"parameterType":"body","parameterName":"partida","fromField":{"$oid":"5afc736daecfd95af53bbcb5"}},{"parameterType":"body","parameterName":"capitulo","fromField":{"$oid":"5afc7362aecfd95af53bbcad"}},{"parameterType":"body","parameterName":"fechaCierre","fromField":{"$oid":"5afc7bcaaecfd95af53bc178"}},{"parameterType":"body","parameterName":"ejercicio","fromField":{"$oid":"5afc7355aecfd95af53bbca5"}},{"parameterType":"body","parameterName":"periodo","fromField":{"$oid":"5afc737faecfd95af53bbcc0"}},{"parameterType":"body","parameterName":"documentos","fromField":{"$oid":"5b202a84d1fef5463c48a07f"}}],"title":"Notificar GyA","autenticacion":true,"contentType":"application/json","host":"http://localhost","port":"8181","method":"POST","path":"/cxf/public/notificacion/","actionTitle":"Notificar a GyA","roles":[]}
{"_id":{"$oid":"5b0c19b6e4fe7bb5d45ad5a5"},"fechaCreacion":"2018-04-27","grupoServicio":{"$oid":"5ae319798846a37fab03fabf"},"title":"Obtener servicios","autenticacion":true,"contentType":"application/json","host":"http://arq-int.sigfe.gob.cl","handleAs":"xml","port":"8181","method":"GET","path":"/cxf/public/obtieneServicios/","actionTitle":"Obtener servicios","roles":[]}
{"_id":{"$oid":"5b18107ed1fef5463c489fda"},"fechaCreacion":"2018-06-06","grupoServicio":{"$oid":"5b05a81145a12d656de856be"},"campos":[{"order":0.0,"parameterType":"body","parameterName":"partida","fromField":{"$oid":"5afc736daecfd95af53bbcb5"}},{"order":1.0,"parameterType":"body","parameterName":"capitulo","fromField":{"$oid":"5afc7362aecfd95af53bbcad"}},{"order":2.0,"parameterType":"body","parameterName":"fechaCierrePeriodo","fromField":{"$oid":"5afc7bcaaecfd95af53bc178"}},{"order":3.0,"parameterType":"body","parameterName":"crud","fromField":{"$oid":"5b181983d1fef5463c489fe5"},"hidden":true,"defaultValue":"SELECT"}],"title":"Consultar Registro Carga","autenticacion":false,"contentType":"application/json","host":"http://arq-int.sigfe.gob.cl","port":"8181","method":"POST","path":"/cxf/private/registroCarga","actionTitle":"Consultar Registro Carga","roles":["IOP_CONSOLE_TEC","IOP_CONSOLE_OP","IOP_CONSOLE_SDESK"]}
{"_id":{"$oid":"5afc39b0aecfd95af53b9b64"},"fechaCreacion":{"$date":"2018-04-27T17:53:15.969Z"},"grupoServicio":{"$oid":"5ae319798846a37fab03fabf"},"campos":[{"order":0.0,"parameterType":"path","fromField":{"$oid":"5afc354eaecfd95af53b98f7"}},{"order":1.0,"parameterType":"path","fromField":{"$oid":"5afc359eaecfd95af53b9925"}},{"parameterType":"asBody","fromField":{"$oid":"5ae7698cc3deb22fb7828cc4"}}],"title":"Recibir Informacion","autenticacion":true,"contentType":"text/xml","host":"http://arq-int.sigfe.gob.cl","port":"8181","method":"POST","path":"/cxf/public/recibirInformacion/","actionTitle":"Recibir informacion","__v":0.0,"roles":[]}
{"_id":{"$oid":"5afc4ae1aecfd95af53ba56a"},"fechaCreacion":{"$date":"2018-04-27T17:53:15.969Z"},"grupoServicio":{"$oid":"5b05a81145a12d656de856be"},"campos":[{"parameterType":"body","parameterName":"idDocumento","fromField":{"$oid":"5afc48cfaecfd95af53ba436"}},{"parameterType":"body","parameterName":"tipoArchivo","fromField":{"$oid":"5afc48e7aecfd95af53ba443"}},{"parameterType":"body","parameterName":"tipoHomologado","fromField":{"$oid":"5afc4913aecfd95af53ba45f"}}],"title":"Cargar Agregacion","autenticacion":true,"contentType":"application/json","host":"http://arq-int.sigfe.gob.cl","port":"8181","method":"POST","path":"/cxf/private/cargaHomologadoAgregacion/","actionTitle":"Cargar Agregacion","roles":["IOP_CONSOLE_TEC"]}
{"_id":{"$oid":"5b073ac7e4fe7bb5d45ac483"},"fechaCreacion":"2018-04-27T17:53:15.969Z","grupoServicio":{"$oid":"5ae319798846a37fab03fabf"},"campos":[{"parameterType":"path","order":0.0,"fromField":{"$oid":"5b073c12e4fe7bb5d45ac505"}},{"parameterType":"body","parameterName":"tipoConsulta","fromField":{"$oid":"5b073b71e4fe7bb5d45ac4c1"}},{"parameterType":"body","parameterName":"ejercicio","fromField":{"$oid":"5afc7355aecfd95af53bbca5"}},{"parameterType":"body","parameterName":"subtitulo","fromField":{"$oid":"5b073af0e4fe7bb5d45ac491"}},{"parameterType":"body","parameterName":"partida","fromField":{"$oid":"5afc736daecfd95af53bbcb5"}},{"parameterType":"body","parameterName":"capitulo","fromField":{"$oid":"5afc7362aecfd95af53bbcad"}},{"parameterType":"body","parameterName":"item ","fromField":{"$oid":"5b074280e4fe7bb5d45ac7b7"}},{"parameterType":"body","parameterName":"asignacion","fromField":{"$oid":"5b074294e4fe7bb5d45ac7bf"}},{"parameterType":"body","parameterName":"nombre","fromField":{"$oid":"5b0742bde4fe7bb5d45ac7cf"}}],"title":"Consulta configuracion","autenticacion":true,"contentType":"application/json","host":"http://localhost","port":"8181","method":"POST","path":"/cxf/public/catalogo/consulta/","actionTitle":"Consultar configuracion","roles":[]}
{"_id":{"$oid":"5b757c51c6215341c85590ed"},"fechaCreacion":{"$date":"2018-08-16T13:30:15.969Z"},"grupoServicio":{"$oid":"5ae319798846a37fab03fabf"},"campos":[{"order":0.0,"parameterType":"body","parameterName":"partida","fromField":{"$oid":"5afc736daecfd95af53bbcb5"}},{"order":1.0,"parameterType":"body","parameterName":"capitulo","fromField":{"$oid":"5afc7362aecfd95af53bbcad"}},{"order":2.0,"parameterType":"body","parameterName":"fechaCierre","fromField":{"$oid":"5b7abd34c6215341c85590f8"}}],"title":"Notificar Cierre","autenticacion":true,"contentType":"application/json","host":"http://arq-int.sigfe.gob.cl","port":"8181","method":"POST","path":"/cxf/public/notificacion/GyA/cierre/","actionTitle":"Notificar Cierre H-I","roles":["IOP_CONSOLE_INST_HG1","IOP_CONSOLE_OP","IOP_CONSOLE_SDESK"]}
{"_id":{"$oid":"5b75825bc6215341c85590ee"},"fechaCreacion":{"$date":"2018-08-16T13:56:15.969Z"},"grupoServicio":{"$oid":"5ae319798846a37fab03fabf"},"campos":[{"order":0.0,"parameterType":"body","parameterName":"partida","fromField":{"$oid":"5afc736daecfd95af53bbcb5"}},{"order":1.0,"parameterType":"body","parameterName":"capitulo","fromField":{"$oid":"5afc7362aecfd95af53bbcad"}},{"order":2.0,"parameterType":"body","parameterName":"fechaCierre","fromField":{"$oid":"5b7abd34c6215341c85590f8"}}],"title":"Notificar Reproceso","autenticacion":true,"contentType":"application/json","host":"http://arq-int.sigfe.gob.cl","port":"8181","method":"POST","path":"/cxf/public/notificacion/GyA/reproceso/","actionTitle":"Notificar Reproceso H-I","roles":["IOP_CONSOLE_INST_HG1","IOP_CONSOLE_OP","IOP_CONSOLE_SDESK"]}
{"_id":{"$oid":"5b7584c7c6215341c85590ef"},"fechaCreacion":{"$date":"2018-08-16T14:05:15.969Z"},"grupoServicio":{"$oid":"5ae319798846a37fab03fabf"},"campos":[{"order":0.0,"parameterType":"body","parameterName":"partida","fromField":{"$oid":"5afc736daecfd95af53bbcb5"}},{"order":1.0,"parameterType":"body","parameterName":"capitulo","fromField":{"$oid":"5afc7362aecfd95af53bbcad"}},{"order":2.0,"parameterType":"body","parameterName":"ejercicio","fromField":{"$oid":"5afc7355aecfd95af53bbca5"}},{"order":3.0,"parameterType":"body","parameterName":"periodo","fromField":{"$oid":"5afc737faecfd95af53bbcc0"}},{"order":4.0,"parameterType":"body","parameterName":"documentos","fromField":{"$oid":"5b75c3bec6215341c85590f4"}}],"title":"Notificar Estado a Interop","autenticacion":true,"contentType":"application/json","host":"http://arq-int.sigfe.gob.cl","port":"8181","method":"POST","path":"/cxf/public/notificacion/GyA/estadoProceso/","actionTitle":"Notificar estado a Interop","roles":["IOP_CONSOLE_TEC","IOP_CONSOLE_GYA"]}
{"_id":{"$oid":"5b75b708c6215341c85590f2"},"fechaCreacion":{"$date":"2018-08-16T17:30:15.969Z"},"grupoServicio":{"$oid":"5ae319798846a37fab03fabf"},"campos":[{"parameterName":"ws","parameterType":"url","fromField":{"$oid":"5ae76908c3deb22fb7828c96"}},{"parameterType":"asBody","fromField":{"$oid":"5ae7698cc3deb22fb7828cc4"},"wraperField":{"$oid":"5b855787ff992c1dc216c4ea"}}],"title":"Enviar Documento","autenticacion":true,"contentType":"text/xml","host":"http://arq-int.sigfe.gob.cl","port":"8181","method":"POST","path":"/cxf/public/documento/registra/homologado/","actionTitle":"Enviar Documento","roles":["IOP_CONSOLE_TEC"],"__v":0.0}
{"_id":{"$oid":"5b75b734c6215341c85590f3"},"fechaCreacion":{"$date":"2018-08-16T17:30:15.969Z"},"grupoServicio":{"$oid":"5ae319798846a37fab03fabf"},"campos":[{"parameterName":"ws","parameterType":"url","fromField":{"$oid":"5b75b5e7c6215341c85590f1"}},{"parameterType":"asBody","fromField":{"$oid":"5b87dd039f6bf00bc84c90c5"}}],"title":"Enviar Documento","autenticacion":true,"contentType":"text/xml","host":"http://arq-int.sigfe.gob.cl","port":"8181","method":"POST","path":"/cxf/public/documento/registra/homologado/","actionTitle":"Enviar documento H-II","roles":["IOP_CONSOLE_INST_HG2","IOP_CONSOLE_OP","IOP_CONSOLE_SDESK"],"__v":0.0}
{"_id":{"$oid":"5b75e08ec6215341c85590f5"},"fechaCreacion":{"$date":"2018-04-27T17:53:15.969Z"},"grupoServicio":{"$oid":"5b05a81145a12d656de856be"},"campos":[{"order":0.0,"parameterType":"body","parameterName":"uuid","fromField":{"$oid":"5afc48cfaecfd95af53ba436"}},{"order":1.0,"parameterType":"body","parameterName":"tipoArchivo","fromField":{"$oid":"5afc48e7aecfd95af53ba443"}},{"parameterType":"body","parameterName":"md5Sum","fromField":{"$oid":"5afc7bb0aecfd95af53bc167"}},{"order":2.0,"parameterType":"body","parameterName":"tipoHomologado","fromField":{"$oid":"5afc4913aecfd95af53ba45f"}},{"order":3.0,"parameterType":"body","parameterName":"partida","fromField":{"$oid":"5afc736daecfd95af53bbcb5"}},{"order":4.0,"parameterType":"body","parameterName":"capitulo","fromField":{"$oid":"5afc7362aecfd95af53bbcad"}},{"order":5.0,"parameterType":"body","parameterName":"fechaCierrePeriodo","fromField":{"$oid":"5b7abd34c6215341c85590f8"}},{"order":6.0,"parameterType":"body","parameterName":"fechaCreacion","fromField":{"$oid":"5afc7bd9aecfd95af53bc181"}},{"order":7.0,"parameterType":"body","parameterName":"fechaHasta","fromField":{"$oid":"5afc7bedaecfd95af53bc18e"}},{"order":8.0,"parameterType":"body","parameterName":"idCamunda","fromField":{"$oid":"5afc7bfbaecfd95af53bc197"}}],"title":"Validar Cierre Institucion","autenticacion":false,"contentType":"application/json","host":"http://arq-int.sigfe.gob.cl","port":"8181","method":"POST","path":"/cxf/private/procesaCierreInstitucion/validar","actionTitle":"Validar Cierre Institucion","roles":["IOP_CONSOLE_TEC"]}
{"_id":{"$oid":"5b75e0bbc6215341c85590f6"},"fechaCreacion":{"$date":"2018-04-27T17:53:15.969Z"},"grupoServicio":{"$oid":"5b05a81145a12d656de856be"},"campos":[{"order":0.0,"parameterType":"body","parameterName":"uuid","fromField":{"$oid":"5afc48cfaecfd95af53ba436"}},{"order":1.0,"parameterType":"body","parameterName":"tipoArchivo","fromField":{"$oid":"5afc48e7aecfd95af53ba443"}},{"order":2.0,"parameterType":"body","parameterName":"md5Sum","fromField":{"$oid":"5afc7bb0aecfd95af53bc167"}},{"order":3.0,"parameterType":"body","parameterName":"tipoHomologado","fromField":{"$oid":"5afc4913aecfd95af53ba45f"}},{"order":4.0,"parameterType":"body","parameterName":"partida","fromField":{"$oid":"5afc736daecfd95af53bbcb5"}},{"order":5.0,"parameterType":"body","parameterName":"capitulo","fromField":{"$oid":"5afc7362aecfd95af53bbcad"}},{"order":6.0,"parameterType":"body","parameterName":"fechaCierrePeriodo","fromField":{"$oid":"5b7abd34c6215341c85590f8"}},{"order":7.0,"parameterType":"body","parameterName":"fechaCreacion","fromField":{"$oid":"5afc7bd9aecfd95af53bc181"}},{"order":8.0,"parameterType":"body","parameterName":"fechaHasta","fromField":{"$oid":"5afc7bedaecfd95af53bc18e"}},{"order":9.0,"parameterType":"body","parameterName":"idCamunda","fromField":{"$oid":"5afc7bfbaecfd95af53bc197"}}],"title":"Cargar Cierre Institucion","autenticacion":false,"contentType":"application/json","host":"http://arq-int.sigfe.gob.cl","port":"8181","method":"POST","path":"/cxf/private/procesaCierreInstitucion/cargarGyA","actionTitle":"Cargar Cierre Institucion","roles":["IOP_CONSOLE_TEC"]}
{"_id":{"$oid":"5b75e0f3c6215341c85590f7"},"fechaCreacion":{"$date":"2018-04-27T17:53:15.969Z"},"grupoServicio":{"$oid":"5b05a81145a12d656de856be"},"campos":[{"order":0.0,"parameterType":"body","parameterName":"uuid","fromField":{"$oid":"5afc48cfaecfd95af53ba436"}},{"order":1.0,"parameterType":"body","parameterName":"tipoArchivo","fromField":{"$oid":"5afc48e7aecfd95af53ba443"}},{"order":2.0,"parameterType":"body","parameterName":"md5Sum","fromField":{"$oid":"5afc7bb0aecfd95af53bc167"}},{"order":3.0,"parameterType":"body","parameterName":"tipoHomologado","fromField":{"$oid":"5afc4913aecfd95af53ba45f"}},{"order":4.0,"parameterType":"body","parameterName":"partida","fromField":{"$oid":"5afc736daecfd95af53bbcb5"}},{"order":5.0,"parameterType":"body","parameterName":"capitulo","fromField":{"$oid":"5afc7362aecfd95af53bbcad"}},{"order":6.0,"parameterType":"body","parameterName":"fechaCierrePeriodo","fromField":{"$oid":"5b7abd34c6215341c85590f8"}},{"order":7.0,"parameterType":"body","parameterName":"fechaCreacion","fromField":{"$oid":"5afc7bd9aecfd95af53bc181"}},{"order":8.0,"parameterType":"body","parameterName":"fechaHasta","fromField":{"$oid":"5afc7bedaecfd95af53bc18e"}},{"order":9.0,"parameterType":"body","parameterName":"idCamunda","fromField":{"$oid":"5afc7bfbaecfd95af53bc197"}}],"title":"Cargar Estado Cierre Inst.","autenticacion":false,"contentType":"application/json","host":"http://arq-int.sigfe.gob.cl","port":"8181","method":"POST","path":"/cxf/private/procesaCierreInstitucion/cargarEstado","actionTitle":"Cargar Estado Cierre Inst.","roles":["IOP_CONSOLE_TEC"]}
{"_id":{"$oid":"5b8057c7b4e5f932a48412f7"},"fechaCreacion":{"$date":"2018-08-16T13:30:15.969Z"},"grupoServicio":{"$oid":"5ae319798846a37fab03fabf"},"campos":[{"order":0.0,"parameterType":"body","parameterName":"partida","fromField":{"$oid":"5afc736daecfd95af53bbcb5"}},{"order":1.0,"parameterType":"body","parameterName":"capitulo","fromField":{"$oid":"5afc7362aecfd95af53bbcad"}},{"order":2.0,"parameterType":"body","parameterName":"fechaCierre","fromField":{"$oid":"5b7abd34c6215341c85590f8"}}],"title":"Notificar Cierre","autenticacion":true,"contentType":"application/json","host":"http://arq-int.sigfe.gob.cl","port":"8181","method":"POST","path":"/cxf/public/notificacion/GyA/cierre/","actionTitle":"Notificar Cierre H-II","roles":["IOP_CONSOLE_INST_HG2","IOP_CONSOLE_OP","IOP_CONSOLE_SDESK"]}
{"_id":{"$oid":"5b8057f6b4e5f932a48412f8"},"fechaCreacion":{"$date":"2018-08-16T13:56:15.969Z"},"grupoServicio":{"$oid":"5ae319798846a37fab03fabf"},"campos":[{"order":0.0,"parameterType":"body","parameterName":"partida","fromField":{"$oid":"5afc736daecfd95af53bbcb5"}},{"order":1.0,"parameterType":"body","parameterName":"capitulo","fromField":{"$oid":"5afc7362aecfd95af53bbcad"}},{"order":2.0,"parameterType":"body","parameterName":"fechaCierre","fromField":{"$oid":"5b7abd34c6215341c85590f8"}}],"title":"Notificar Reproceso","autenticacion":true,"contentType":"application/json","host":"http://arq-int.sigfe.gob.cl","port":"8181","method":"POST","path":"/cxf/public/notificacion/GyA/reproceso/","actionTitle":"Notificar Reproceso H-II","roles":["IOP_CONSOLE_INST_HG2","IOP_CONSOLE_OP","IOP_CONSOLE_SDESK"]}
{"_id":{"$oid":"5b805919b4e5f932a48412fa"},"fechaCreacion":{"$date":"2018-04-27T17:53:15.969Z"},"grupoServicio":{"$oid":"5ae319798846a37fab03fabf"},"campos":[{"order":1.0,"parameterType":"path","fromField":{"$oid":"5afc48cfaecfd95af53ba436"}}],"title":"Descargar Documento","autenticacion":true,"contentType":"text/xml","host":"http://localhost","port":"8181","method":"GET","handleAs":"xml","path":"/cxf/public/documento/descarga/","actionTitle":"Descargar Documento H-II","__v":0.0,"roles":["IOP_CONSOLE_INST_HG2"]}
{"_id":{"$oid":"5b807045b4e5f932a4841307"},"fechaCreacion":{"$date":"2018-08-16T17:30:15.969Z"},"grupoServicio":{"$oid":"5ae319798846a37fab03fabf"},"campos":[{"parameterName":"ws","parameterType":"url","fromField":{"$oid":"5b75b5c1c6215341c85590f0"}},{"parameterType":"asBody","fromField":{"$oid":"5ae7698cc3deb22fb7828cc4"},"wraperField":{"$oid":"5b855787ff992c1dc216c4ea"}}],"title":"Enviar Documento","autenticacion":true,"contentType":"text/xml","host":"http://arq-int.sigfe.gob.cl","port":"8181","method":"POST","path":"/cxf/public/documento/registra/homologado/","actionTitle":"Enviar Documento H-I","roles":["IOP_CONSOLE_INST_HG1","IOP_CONSOLE_OP","IOP_CONSOLE_SDESK"],"__v":0.0}
{"_id":{"$oid":"5b807626b4e5f932a4841308"},"fechaCreacion":{"$date":"2018-08-16T13:30:15.969Z"},"grupoServicio":{"$oid":"5ae319798846a37fab03fabf"},"campos":[{"order":0.0,"parameterType":"body","parameterName":"partida","fromField":{"$oid":"5afc736daecfd95af53bbcb5"}},{"order":1.0,"parameterType":"body","parameterName":"capitulo","fromField":{"$oid":"5afc7362aecfd95af53bbcad"}},{"order":2.0,"parameterType":"body","parameterName":"fechaCierre","fromField":{"$oid":"5b7abd34c6215341c85590f8"}}],"title":"Notificar Cierre","autenticacion":true,"contentType":"application/json","host":"http://arq-int.sigfe.gob.cl","port":"8181","method":"POST","path":"/cxf/public/notificacion/GyA/cierre/","actionTitle":"Notificar Cierre","roles":["IOP_CONSOLE_TEC"]}
{"_id":{"$oid":"5b8076a6b4e5f932a4841309"},"fechaCreacion":{"$date":"2018-08-16T13:56:15.969Z"},"grupoServicio":{"$oid":"5ae319798846a37fab03fabf"},"campos":[{"order":0.0,"parameterType":"body","parameterName":"partida","fromField":{"$oid":"5afc736daecfd95af53bbcb5"}},{"order":1.0,"parameterType":"body","parameterName":"capitulo","fromField":{"$oid":"5afc7362aecfd95af53bbcad"}},{"order":2.0,"parameterType":"body","parameterName":"fechaCierre","fromField":{"$oid":"5b7abd34c6215341c85590f8"}}],"title":"Notificar Reproceso","autenticacion":true,"contentType":"application/json","host":"http://arq-int.sigfe.gob.cl","port":"8181","method":"POST","path":"/cxf/public/notificacion/GyA/reproceso/","actionTitle":"Notificar Reproceso","roles":["IOP_CONSOLE_TEC"]}
{"_id":{"$oid":"5b8078e2b4e5f932a484130a"},"fechaCreacion":{"$date":"2018-04-27T17:53:15.969Z"},"grupoServicio":{"$oid":"5ae319798846a37fab03fabf"},"campos":[{"order":1.0,"parameterType":"path","fromField":{"$oid":"5afc48cfaecfd95af53ba436"}}],"title":"Descargar Documento","autenticacion":true,"contentType":"text/xml","host":"http://localhost","port":"8181","method":"GET","handleAs":"xml","path":"/cxf/public/documento/descarga/","actionTitle":"Descargar Documento","__v":0.0,"roles":["IOP_CONSOLE_TEC","IOP_CONSOLE_OP","IOP_CONSOLE_SDESK"]}
{"_id":{"$oid":"5b807bf2b4e5f932a484130b"},"fechaCreacion":{"$date":"2018-04-27T17:53:15.969Z"},"grupoServicio":{"$oid":"5b05a81145a12d656de856be"},"campos":[{"parameterType":"body","parameterName":"idDocumento","fromField":{"$oid":"5afc48cfaecfd95af53ba436"}},{"parameterType":"body","parameterName":"tipoArchivo","fromField":{"$oid":"5afc48e7aecfd95af53ba443"}},{"parameterType":"body","parameterName":"tipoHomologado","fromField":{"$oid":"5afc4913aecfd95af53ba45f"}}],"title":"Cargar Agregacion","autenticacion":true,"contentType":"application/json","host":"http://arq-int.sigfe.gob.cl","port":"8181","method":"POST","path":"/cxf/private/cargaHomologadoAgregacion/","actionTitle":"Cargar Agregacion","roles":["IOP_CONSOLE_PRV_HG1","IOP_CONSOLE_OP"]}
{"_id":{"$oid":"5b807c5ab4e5f932a484130c"},"fechaCreacion":{"$date":"2018-04-27T17:53:15.969Z"},"grupoServicio":{"$oid":"5b05a81145a12d656de856be"},"campos":[{"parameterType":"body","parameterName":"idDocumento","fromField":{"$oid":"5afc48cfaecfd95af53ba436"}},{"parameterType":"body","parameterName":"tipoArchivo","fromField":{"$oid":"5afc48e7aecfd95af53ba443"}},{"parameterType":"body","parameterName":"usuario","fromField":{"$oid":"5afc4901aecfd95af53ba454"}},{"parameterType":"body","parameterName":"tipoHomologado","fromField":{"$oid":"5afc4913aecfd95af53ba45f"}}],"title":"Cargar Homologados","autenticacion":false,"contentType":"application/json","host":"http://localhost","port":"8181","method":"POST","path":"/cxf/private/cargaHomologado/","actionTitle":"Cargar Homologado","roles":["IOP_CONSOLE_PRV_HG1","IOP_CONSOLE_OP"]}
{"_id":{"$oid":"5b807c63b4e5f932a484130d"},"fechaCreacion":{"$date":"2018-04-27T17:53:15.969Z"},"grupoServicio":{"$oid":"5b05a81145a12d656de856be"},"campos":[{"parameterType":"body","parameterName":"idDocumento","fromField":{"$oid":"5afc48cfaecfd95af53ba436"}},{"parameterType":"body","parameterName":"tipoArchivo","fromField":{"$oid":"5afc48e7aecfd95af53ba443"}},{"parameterType":"body","parameterName":"usuario","fromField":{"$oid":"5afc4901aecfd95af53ba454"}},{"parameterType":"body","parameterName":"tipoHomologado","fromField":{"$oid":"5afc4913aecfd95af53ba45f"}}],"title":"Cargar Homologados","autenticacion":false,"contentType":"application/json","host":"http://localhost","port":"8181","method":"POST","path":"/cxf/private/cargaHomologado/","actionTitle":"Cargar Homologado","roles":["IOP_CONSOLE_PRV_HG2","IOP_CONSOLE_OP"]}
{"_id":{"$oid":"5b84066d9f6bf00bc84c90ba"},"fechaCreacion":{"$date":"2018-04-27T17:53:15.969Z"},"grupoServicio":{"$oid":"5b05a81145a12d656de856be"},"campos":[{"parameterType":"path","order":0.0,"fromField":{"$oid":"5afc7b72aecfd95af53bc144"}},{"order":1.0,"parameterType":"body","parameterName":"uuid","fromField":{"$oid":"5afc48cfaecfd95af53ba436"}},{"order":2.0,"parameterType":"body","parameterName":"tipoArchivo","fromField":{"$oid":"5afc48e7aecfd95af53ba443"}},{"order":3.0,"parameterType":"body","parameterName":"md5Sum","fromField":{"$oid":"5afc7bb0aecfd95af53bc167"}},{"order":4.0,"parameterType":"body","parameterName":"tipoHomologado","fromField":{"$oid":"5afc4913aecfd95af53ba45f"}},{"order":5.0,"parameterType":"body","parameterName":"partida","fromField":{"$oid":"5afc736daecfd95af53bbcb5"}},{"order":6.0,"parameterType":"body","parameterName":"capitulo","fromField":{"$oid":"5afc7362aecfd95af53bbcad"}},{"order":7.0,"parameterType":"body","parameterName":"fechaCierrePeriodo","fromField":{"$oid":"5afc7bcaaecfd95af53bc178"}},{"order":8.0,"parameterType":"body","parameterName":"fechaCreacion","fromField":{"$oid":"5afc7bd9aecfd95af53bc181"}},{"order":9.0,"parameterType":"body","parameterName":"fechaHasta","fromField":{"$oid":"5afc7bedaecfd95af53bc18e"}},{"order":10.0,"parameterType":"body","parameterName":"idCamunda","fromField":{"$oid":"5afc7bfbaecfd95af53bc197"}}],"title":"Procesar cierre institucion","autenticacion":false,"contentType":"application/json","host":"http://arq-int.sigfe.gob.cl","port":"8181","method":"POST","path":"/cxf/private/procesaCierreInstitucion/","actionTitle":"Procesar cierre","roles":["IOP_CONSOLE_PRV_HG1","IOP_CONSOLE_OP"]}
{"_id":{"$oid":"5b8412159f6bf00bc84c90bb"},"fechaCreacion":{"$date":"2018-08-16T14:05:15.969Z"},"grupoServicio":{"$oid":"5ae319798846a37fab03fabf"},"campos":[{"order":0.0,"parameterType":"body","parameterName":"partida","fromField":{"$oid":"5afc736daecfd95af53bbcb5"}},{"order":1.0,"parameterType":"body","parameterName":"capitulo","fromField":{"$oid":"5afc7362aecfd95af53bbcad"}},{"order":2.0,"parameterType":"body","parameterName":"ejercicio","fromField":{"$oid":"5afc7355aecfd95af53bbca5"}},{"order":3.0,"parameterType":"body","parameterName":"periodo","fromField":{"$oid":"5afc737faecfd95af53bbcc0"}},{"order":4.0,"parameterType":"body","parameterName":"documentos","fromField":{"$oid":"5b75c3bec6215341c85590f4"}}],"title":"Notificar Estado GyA a Interop","autenticacion":true,"contentType":"application/json","host":"http://arq-int.sigfe.gob.cl","port":"8181","method":"POST","path":"/cxf/public/notificacion/GyA/estadoProceso/","actionTitle":"Notificar estado GyA a Interop","roles":["IOP_CONSOLE_PRV_HG1","IOP_CONSOLE_OP"]}
{"_id":{"$oid":"5b8412b99f6bf00bc84c90bc"},"fechaCreacion":"2018-06-06","grupoServicio":{"$oid":"5b05a81145a12d656de856be"},"campos":[{"order":0.0,"parameterType":"body","parameterName":"partida","fromField":{"$oid":"5afc736daecfd95af53bbcb5"}},{"order":1.0,"parameterType":"body","parameterName":"capitulo","fromField":{"$oid":"5afc7362aecfd95af53bbcad"}},{"order":2.0,"parameterType":"body","parameterName":"fechaCierrePeriodo","fromField":{"$oid":"5afc7bcaaecfd95af53bc178"}},{"order":3.0,"parameterType":"body","parameterName":"crud","fromField":{"$oid":"5b181983d1fef5463c489fe5"},"hidden":true,"defaultValue":"SELECT"}],"title":"Consultar Registro Carga","autenticacion":false,"contentType":"application/json","host":"http://arq-int.sigfe.gob.cl","port":"8181","method":"POST","path":"/cxf/private/registroCarga","actionTitle":"Consultar Registro Carga","roles":["IOP_CONSOLE_PRV_HG1"]}
{"_id":{"$oid":"5b8414209f6bf00bc84c90bd"},"fechaCreacion":{"$date":"2018-04-27T17:53:15.969Z"},"grupoServicio":{"$oid":"5b05a81145a12d656de856be"},"campos":[{"order":0.0,"parameterType":"body","parameterName":"uuid","fromField":{"$oid":"5afc48cfaecfd95af53ba436"}},{"order":1.0,"parameterType":"body","parameterName":"tipoArchivo","fromField":{"$oid":"5afc48e7aecfd95af53ba443"}},{"order":2.0,"parameterType":"body","parameterName":"md5Sum","fromField":{"$oid":"5afc7bb0aecfd95af53bc167"}},{"order":3.0,"parameterType":"body","parameterName":"tipoHomologado","fromField":{"$oid":"5afc4913aecfd95af53ba45f"}},{"order":4.0,"parameterType":"body","parameterName":"partida","fromField":{"$oid":"5afc736daecfd95af53bbcb5"}},{"order":5.0,"parameterType":"body","parameterName":"capitulo","fromField":{"$oid":"5afc7362aecfd95af53bbcad"}},{"order":6.0,"parameterType":"body","parameterName":"fechaCierrePeriodo","fromField":{"$oid":"5b7abd34c6215341c85590f8"}},{"order":7.0,"parameterType":"body","parameterName":"fechaCreacion","fromField":{"$oid":"5afc7bd9aecfd95af53bc181"}},{"order":8.0,"parameterType":"body","parameterName":"fechaHasta","fromField":{"$oid":"5afc7bedaecfd95af53bc18e"}},{"order":9.0,"parameterType":"body","parameterName":"idCamunda","fromField":{"$oid":"5afc7bfbaecfd95af53bc197"}}],"title":"Cargar Estado Cierre Inst.","autenticacion":false,"contentType":"application/json","host":"http://arq-int.sigfe.gob.cl","port":"8181","method":"POST","path":"/cxf/private/procesaCierreInstitucion/cargarEstado","actionTitle":"Cargar Estado Cierre Inst.","roles":["IOP_CONSOLE_PRV_HG1","IOP_CONSOLE_OP"]}
{"_id":{"$oid":"5b8415079f6bf00bc84c90be"},"fechaCreacion":{"$date":"2018-04-27T17:53:15.969Z"},"grupoServicio":{"$oid":"5b05a81145a12d656de856be"},"campos":[{"order":0.0,"parameterType":"body","parameterName":"uuid","fromField":{"$oid":"5afc48cfaecfd95af53ba436"}},{"order":1.0,"parameterType":"body","parameterName":"tipoArchivo","fromField":{"$oid":"5afc48e7aecfd95af53ba443"}},{"order":2.0,"parameterType":"body","parameterName":"md5Sum","fromField":{"$oid":"5afc7bb0aecfd95af53bc167"}},{"order":3.0,"parameterType":"body","parameterName":"tipoHomologado","fromField":{"$oid":"5afc4913aecfd95af53ba45f"}},{"order":4.0,"parameterType":"body","parameterName":"partida","fromField":{"$oid":"5afc736daecfd95af53bbcb5"}},{"order":5.0,"parameterType":"body","parameterName":"capitulo","fromField":{"$oid":"5afc7362aecfd95af53bbcad"}},{"order":6.0,"parameterType":"body","parameterName":"fechaCierrePeriodo","fromField":{"$oid":"5b7abd34c6215341c85590f8"}},{"order":7.0,"parameterType":"body","parameterName":"fechaCreacion","fromField":{"$oid":"5afc7bd9aecfd95af53bc181"}},{"order":8.0,"parameterType":"body","parameterName":"fechaHasta","fromField":{"$oid":"5afc7bedaecfd95af53bc18e"}},{"order":9.0,"parameterType":"body","parameterName":"idCamunda","fromField":{"$oid":"5afc7bfbaecfd95af53bc197"}}],"title":"Cargar Cierre Institucion","autenticacion":false,"contentType":"application/json","host":"http://arq-int.sigfe.gob.cl","port":"8181","method":"POST","path":"/cxf/private/procesaCierreInstitucion/cargarGyA","actionTitle":"Cargar Cierre Institucion","roles":["IOP_CONSOLE_PRV_HG1","IOP_CONSOLE_OP"]}
{"_id":{"$oid":"5b8416379f6bf00bc84c90bf"},"fechaCreacion":{"$date":"2018-04-27T17:53:15.969Z"},"grupoServicio":{"$oid":"5b05a81145a12d656de856be"},"campos":[{"order":0.0,"parameterType":"body","parameterName":"uuid","fromField":{"$oid":"5afc48cfaecfd95af53ba436"}},{"order":1.0,"parameterType":"body","parameterName":"tipoArchivo","fromField":{"$oid":"5afc48e7aecfd95af53ba443"}},{"order":2.0,"parameterType":"body","parameterName":"md5Sum","fromField":{"$oid":"5afc7bb0aecfd95af53bc167"}},{"order":3.0,"parameterType":"body","parameterName":"tipoHomologado","fromField":{"$oid":"5afc4913aecfd95af53ba45f"}},{"order":4.0,"parameterType":"body","parameterName":"partida","fromField":{"$oid":"5afc736daecfd95af53bbcb5"}},{"order":5.0,"parameterType":"body","parameterName":"capitulo","fromField":{"$oid":"5afc7362aecfd95af53bbcad"}},{"order":6.0,"parameterType":"body","parameterName":"fechaCierrePeriodo","fromField":{"$oid":"5b7abd34c6215341c85590f8"}},{"order":7.0,"parameterType":"body","parameterName":"fechaCreacion","fromField":{"$oid":"5afc7bd9aecfd95af53bc181"}},{"order":8.0,"parameterType":"body","parameterName":"fechaHasta","fromField":{"$oid":"5afc7bedaecfd95af53bc18e"}},{"order":9.0,"parameterType":"body","parameterName":"idCamunda","fromField":{"$oid":"5afc7bfbaecfd95af53bc197"}}],"title":"Validar Cierre Institucion","autenticacion":false,"contentType":"application/json","host":"http://arq-int.sigfe.gob.cl","port":"8181","method":"POST","path":"/cxf/private/procesaCierreInstitucion/validar","actionTitle":"Validar Cierre Institucion","roles":["IOP_CONSOLE_PRV_HG1","IOP_CONSOLE_OP"]}
{"_id":{"$oid":"5b8419329f6bf00bc84c90c0"},"fechaCreacion":{"$date":"2018-04-27T17:53:15.969Z"},"grupoServicio":{"$oid":"5b05a81145a12d656de856be"},"campos":[{"order":0.0,"parameterType":"body","parameterName":"uuid","fromField":{"$oid":"5afc48cfaecfd95af53ba436"}},{"order":1.0,"parameterType":"body","parameterName":"tipoArchivo","fromField":{"$oid":"5afc48e7aecfd95af53ba443"}},{"order":2.0,"parameterType":"body","parameterName":"md5Sum","fromField":{"$oid":"5afc7bb0aecfd95af53bc167"}},{"order":3.0,"parameterType":"body","parameterName":"tipoHomologado","fromField":{"$oid":"5afc4913aecfd95af53ba45f"}},{"order":4.0,"parameterType":"body","parameterName":"partida","fromField":{"$oid":"5afc736daecfd95af53bbcb5"}},{"order":5.0,"parameterType":"body","parameterName":"capitulo","fromField":{"$oid":"5afc7362aecfd95af53bbcad"}},{"order":6.0,"parameterType":"body","parameterName":"fechaCierrePeriodo","fromField":{"$oid":"5b7abd34c6215341c85590f8"}},{"order":7.0,"parameterType":"body","parameterName":"fechaCreacion","fromField":{"$oid":"5afc7bd9aecfd95af53bc181"}},{"order":8.0,"parameterType":"body","parameterName":"fechaHasta","fromField":{"$oid":"5afc7bedaecfd95af53bc18e"}},{"order":9.0,"parameterType":"body","parameterName":"idCamunda","fromField":{"$oid":"5afc7bfbaecfd95af53bc197"}}],"title":"Validar Cierre Institucion","autenticacion":false,"contentType":"application/json","host":"http://arq-int.sigfe.gob.cl","port":"8181","method":"POST","path":"/cxf/private/procesaCierreInstitucion/validar","actionTitle":"Validar Cierre Institucion","roles":["IOP_CONSOLE_PRV_HG2","IOP_CONSOLE_OP"]}
{"_id":{"$oid":"5b8419939f6bf00bc84c90c1"},"fechaCreacion":{"$date":"2018-04-27T17:53:15.969Z"},"grupoServicio":{"$oid":"5b05a81145a12d656de856be"},"campos":[{"order":0.0,"parameterType":"body","parameterName":"uuid","fromField":{"$oid":"5afc48cfaecfd95af53ba436"}},{"order":1.0,"parameterType":"body","parameterName":"tipoArchivo","fromField":{"$oid":"5afc48e7aecfd95af53ba443"}},{"order":2.0,"parameterType":"body","parameterName":"md5Sum","fromField":{"$oid":"5afc7bb0aecfd95af53bc167"}},{"order":3.0,"parameterType":"body","parameterName":"tipoHomologado","fromField":{"$oid":"5afc4913aecfd95af53ba45f"}},{"order":4.0,"parameterType":"body","parameterName":"partida","fromField":{"$oid":"5afc736daecfd95af53bbcb5"}},{"order":5.0,"parameterType":"body","parameterName":"capitulo","fromField":{"$oid":"5afc7362aecfd95af53bbcad"}},{"order":6.0,"parameterType":"body","parameterName":"fechaCierrePeriodo","fromField":{"$oid":"5b7abd34c6215341c85590f8"}},{"order":7.0,"parameterType":"body","parameterName":"fechaCreacion","fromField":{"$oid":"5afc7bd9aecfd95af53bc181"}},{"order":8.0,"parameterType":"body","parameterName":"fechaHasta","fromField":{"$oid":"5afc7bedaecfd95af53bc18e"}},{"order":9.0,"parameterType":"body","parameterName":"idCamunda","fromField":{"$oid":"5afc7bfbaecfd95af53bc197"}}],"title":"Cargar Cierre Institucion","autenticacion":false,"contentType":"application/json","host":"http://arq-int.sigfe.gob.cl","port":"8181","method":"POST","path":"/cxf/private/procesaCierreInstitucion/cargarGyA","actionTitle":"Cargar Cierre Institucion","roles":["IOP_CONSOLE_PRV_HG2","IOP_CONSOLE_OP"]}
{"_id":{"$oid":"5b8419ec9f6bf00bc84c90c2"},"fechaCreacion":{"$date":"2018-04-27T17:53:15.969Z"},"grupoServicio":{"$oid":"5b05a81145a12d656de856be"},"campos":[{"order":0.0,"parameterType":"body","parameterName":"uuid","fromField":{"$oid":"5afc48cfaecfd95af53ba436"}},{"order":1.0,"parameterType":"body","parameterName":"tipoArchivo","fromField":{"$oid":"5afc48e7aecfd95af53ba443"}},{"order":2.0,"parameterType":"body","parameterName":"md5Sum","fromField":{"$oid":"5afc7bb0aecfd95af53bc167"}},{"order":3.0,"parameterType":"body","parameterName":"tipoHomologado","fromField":{"$oid":"5afc4913aecfd95af53ba45f"}},{"order":4.0,"parameterType":"body","parameterName":"partida","fromField":{"$oid":"5afc736daecfd95af53bbcb5"}},{"order":5.0,"parameterType":"body","parameterName":"capitulo","fromField":{"$oid":"5afc7362aecfd95af53bbcad"}},{"order":6.0,"parameterType":"body","parameterName":"fechaCierrePeriodo","fromField":{"$oid":"5b7abd34c6215341c85590f8"}},{"order":7.0,"parameterType":"body","parameterName":"fechaCreacion","fromField":{"$oid":"5afc7bd9aecfd95af53bc181"}},{"order":8.0,"parameterType":"body","parameterName":"fechaHasta","fromField":{"$oid":"5afc7bedaecfd95af53bc18e"}},{"order":9.0,"parameterType":"body","parameterName":"idCamunda","fromField":{"$oid":"5afc7bfbaecfd95af53bc197"}}],"title":"Cargar Estado Cierre Inst.","autenticacion":false,"contentType":"application/json","host":"http://arq-int.sigfe.gob.cl","port":"8181","method":"POST","path":"/cxf/private/procesaCierreInstitucion/cargarEstado","actionTitle":"Cargar Estado Cierre Inst.","roles":["IOP_CONSOLE_PRV_HG2","IOP_CONSOLE_OP"]}
{"_id":{"$oid":"5b841a4f9f6bf00bc84c90c3"},"fechaCreacion":"2018-06-06","grupoServicio":{"$oid":"5b05a81145a12d656de856be"},"campos":[{"order":0.0,"parameterType":"body","parameterName":"partida","fromField":{"$oid":"5afc736daecfd95af53bbcb5"}},{"order":1.0,"parameterType":"body","parameterName":"capitulo","fromField":{"$oid":"5afc7362aecfd95af53bbcad"}},{"order":2.0,"parameterType":"body","parameterName":"fechaCierrePeriodo","fromField":{"$oid":"5afc7bcaaecfd95af53bc178"}},{"order":3.0,"parameterType":"body","parameterName":"crud","fromField":{"$oid":"5b181983d1fef5463c489fe5"},"hidden":true,"defaultValue":"SELECT"}],"title":"Consultar Registro Carga","autenticacion":false,"contentType":"application/json","host":"http://arq-int.sigfe.gob.cl","port":"8181","method":"POST","path":"/cxf/private/registroCarga","actionTitle":"Consultar Registro Carga","roles":["IOP_CONSOLE_PRV_HG2"]}
{"_id":{"$oid":"5b841a979f6bf00bc84c90c4"},"fechaCreacion":{"$date":"2018-08-16T14:05:15.969Z"},"grupoServicio":{"$oid":"5ae319798846a37fab03fabf"},"campos":[{"order":0.0,"parameterType":"body","parameterName":"partida","fromField":{"$oid":"5afc736daecfd95af53bbcb5"}},{"order":1.0,"parameterType":"body","parameterName":"capitulo","fromField":{"$oid":"5afc7362aecfd95af53bbcad"}},{"order":2.0,"parameterType":"body","parameterName":"ejercicio","fromField":{"$oid":"5afc7355aecfd95af53bbca5"}},{"order":3.0,"parameterType":"body","parameterName":"periodo","fromField":{"$oid":"5afc737faecfd95af53bbcc0"}},{"order":4.0,"parameterType":"body","parameterName":"documentos","fromField":{"$oid":"5b75c3bec6215341c85590f4"}}],"title":"Notificar Estado GyA a Interop","autenticacion":true,"contentType":"application/json","host":"http://arq-int.sigfe.gob.cl","port":"8181","method":"POST","path":"/cxf/public/notificacion/GyA/estadoProceso/","actionTitle":"Notificar estado GyA a Interop","roles":["IOP_CONSOLE_PRV_HG2","IOP_CONSOLE_OP"]}
